Lecture 5-1: Data transformation
…
The first argument is a data frame.

The subsequent arguments describe what to do with the data frame, using the variable names (without quotes).

The result is a new data frame.

Filter rows with filter()

filter() allows you to subset observations based on their values. The first argument is the name of the data frame. The second and subsequent arguments are the expressions that filter the data frame.

For example, we can select all flights on January 1st with:

filter(flights, month == 1, day == 1)

## # A tibble: 842 x 19
##     year month   day dep_time sched_dep_time dep_delay arr_time
##    <int> <int> <int>    <int>          <int>     <dbl>    <int>
##  1  2013     1     1      517            515         2      830
##  2  2013     1     1      533            529         4      850
##  3  2013     1     1      542            540         2      923
##  4  2013     1     1      544            545        -1     1004
##  5  2013     1     1      554            600        -6      812
##  6  2013     1     1      554            558        -4      740
##  7  2013     1     1      555            600        -5      913
##  8  2013     1     1      557            600        -3      709
##  9  2013     1     1      557            600        -3      838
## 10  2013     1     1      558            600        -2      753
## #  with 832 more rows, and 12 more variables: sched_arr_time <int>,
## #   arr_delay <dbl>, carrier <chr>, flight <int>, tailnum <chr>,
## #   origin <chr>, dest <chr>, air_time <dbl>, distance <dbl>, hour <dbl>,
## #   minute <dbl>, time_hour <dttm>

Moral: the , translates to &

R either prints out the results, or saves them to a variable. If you want to do both, you can wrap the assignment in parentheses:

(dec25 <- filter(flights, month == 12, day == 25))

## # A tibble: 719 x 19
##     year month   day dep_time sched_dep_time dep_delay arr_time
##    <int> <int> <int>    <int>          <int>     <dbl>    <int>
##  1  2013    12    25      456            500        -4      649
##  2  2013    12    25      524            515         9      805
##  3  2013    12    25      542            540         2      832
##  4  2013    12    25      546            550        -4     1022
##  5  2013    12    25      556            600        -4      730
##  6  2013    12    25      557            600        -3      743
##  7  2013    12    25      557            600        -3      818
##  8  2013    12    25      559            600        -1      855
##  9  2013    12    25      559            600        -1      849
## 10  2013    12    25      600            600         0      850
## #  with 709 more rows, and 12 more variables: sched_arr_time <int>,
## #   arr_delay <dbl>, carrier <chr>, flight <int>, tailnum <chr>,
## #   origin <chr>, dest <chr>, air_time <dbl>, distance <dbl>, hour <dbl>,
## #   minute <dbl>, time_hour <dttm>

dec25

## # A tibble: 719 x 19
##     year month   day dep_time sched_dep_time dep_delay arr_time
##    <int> <int> <int>    <int>          <int>     <dbl>    <int>
##  1  2013    12    25      456            500        -4      649
##  2  2013    12    25      524            515         9      805
##  3  2013    12    25      542            540         2      832
##  4  2013    12    25      546            550        -4     1022
##  5  2013    12    25      556            600        -4      730
##  6  2013    12    25      557            600        -3      743
##  7  2013    12    25      557            600        -3      818
##  8  2013    12    25      559            600        -1      855
##  9  2013    12    25      559            600        -1      849
## 10  2013    12    25      600            600         0      850
## #  with 709 more rows, and 12 more variables: sched_arr_time <int>,
## #   arr_delay <dbl>, carrier <chr>, flight <int>, tailnum <chr>,
## #   origin <chr>, dest <chr>, air_time <dbl>, distance <dbl>, hour <dbl>,
## #   minute <dbl>, time_hour <dttm>

The following code finds all flights that departed in November or December:

filter(flights, month == 11 | month == 12)

## # A tibble: 55,403 x 19
##     year month   day dep_time sched_dep_time dep_delay arr_time
##    <int> <int> <int>    <int>          <int>     <dbl>    <int>
##  1  2013    11     1        5           2359         6      352
##  2  2013    11     1       35           2250       105      123
##  3  2013    11     1      455            500        -5      641
##  4  2013    11     1      539            545        -6      856
##  5  2013    11     1      542            545        -3      831
##  6  2013    11     1      549            600       -11      912
##  7  2013    11     1      550            600       -10      705
##  8  2013    11     1      554            600        -6      659
##  9  2013    11     1      554            600        -6      826
## 10  2013    11     1      554            600        -6      749
## #  with 55,393 more rows, and 12 more variables: sched_arr_time <int>,
## #   arr_delay <dbl>, carrier <chr>, flight <int>, tailnum <chr>,
## #   origin <chr>, dest <chr>, air_time <dbl>, distance <dbl>, hour <dbl>,
## #   minute <dbl>, time_hour <dttm>

A useful short-hand for this problem is x %in% y. This will select every row where x is one of the values in y. We could use it to rewrite the code above:

(nov_dec <- filter(flights, month %in% c(11, 12)))

## # A tibble: 55,403 x 19
##     year month   day dep_time sched_dep_time dep_delay arr_time
##    <int> <int> <int>    <int>          <int>     <dbl>    <int>
##  1  2013    11     1        5           2359         6      352
##  2  2013    11     1       35           2250       105      123
##  3  2013    11     1      455            500        -5      641
##  4  2013    11     1      539            545        -6      856
##  5  2013    11     1      542            545        -3      831
##  6  2013    11     1      549            600       -11      912
##  7  2013    11     1      550            600       -10      705
##  8  2013    11     1      554            600        -6      659
##  9  2013    11     1      554            600        -6      826
## 10  2013    11     1      554            600        -6      749
## #  with 55,393 more rows, and 12 more variables: sched_arr_time <int>,
## #   arr_delay <dbl>, carrier <chr>, flight <int>, tailnum <chr>,
## #   origin <chr>, dest <chr>, air_time <dbl>, distance <dbl>, hour <dbl>,
## #   minute <dbl>, time_hour <dttm>

Flights that werent delayed (on arrival or departure) by more than two hours:

filter(flights, !(arr_delay > 120 | dep_delay > 120))

## # A tibble: 316,050 x 19
##     year month   day dep_time sched_dep_time dep_delay arr_time
##    <int> <int> <int>    <int>          <int>     <dbl>    <int>
##  1  2013     1     1      517            515         2      830
##  2  2013     1     1      533            529         4      850
##  3  2013     1     1      542            540         2      923
##  4  2013     1     1      544            545        -1     1004
##  5  2013     1     1      554            600        -6      812
##  6  2013     1     1      554            558        -4      740
##  7  2013     1     1      555            600        -5      913
##  8  2013     1     1      557            600        -3      709
##  9  2013     1     1      557            600        -3      838
## 10  2013     1     1      558            600        -2      753
## #  with 316,040 more rows, and 12 more variables: sched_arr_time <int>,
## #   arr_delay <dbl>, carrier <chr>, flight <int>, tailnum <chr>,
## #   origin <chr>, dest <chr>, air_time <dbl>, distance <dbl>, hour <dbl>,
## #   minute <dbl>, time_hour <dttm>
…
A useful dplyr filtering helper is between():

filter(flights, arr_delay <= 120, between(x = dep_delay, left = 80, right = 120))

## # A tibble: 8,020 x 19
##     year month   day dep_time sched_dep_time dep_delay arr_time
##    <int> <int> <int>    <int>          <int>     <dbl>    <int>
##  1  2013     1     1     1120            944        96     1331
##  2  2013     1     1     1548           1420        88     1751
##  3  2013     1     1     1607           1443        84     1711
##  4  2013     1     1     1627           1459        88     1925
##  5  2013     1     1     1639           1517        82     1815
##  6  2013     1     1     1716           1545        91     2140
##  7  2013     1     1     1728           1600        88     2004
##  8  2013     1     1     1743           1615        88     1925
##  9  2013     1     1     1930           1745       105     2233
## 10  2013     1     1     2024           1835       109     2328
## #  with 8,010 more rows, and 12 more variables: sched_arr_time <int>,
## #   arr_delay <dbl>, carrier <chr>, flight <int>, tailnum <chr>,
## #   origin <chr>, dest <chr>, air_time <dbl>, distance <dbl>, hour <dbl>,
## #   minute <dbl>, time_hour <dttm>
…
Departed in summer (July, August, and September)

Arrived more than two hours late, but didnt leave late

Were delayed by at least an hour, but made up over 30 minutes in flight

Departed between midnight and 6am (inclusive)

Arrange rows with arrange()

arrange() works similarly to filter() except that instead of selecting rows, it changes their order. Its inputs are a data frame and a set of column names (or more complicated expressions) to order by. If you provide more than one column name, each additional column will be used to break ties in the values of preceding columns:

arrange(flights, year, month, day)

## # A tibble: 336,776 x 19
##     year month   day dep_time sched_dep_time dep_delay arr_time
##    <int> <int> <int>    <int>          <int>     <dbl>    <int>
##  1  2013     1     1      517            515         2      830
##  2  2013     1     1      533            529         4      850
##  3  2013     1     1      542            540         2      923
##  4  2013     1     1      544            545        -1     1004
##  5  2013     1     1      554            600        -6      812
##  6  2013     1     1      554            558        -4      740
##  7  2013     1     1      555            600        -5      913
##  8  2013     1     1      557            600        -3      709
##  9  2013     1     1      557            600        -3      838
## 10  2013     1     1      558            600        -2      753
## #  with 336,766 more rows, and 12 more variables: sched_arr_time <int>,
## #   arr_delay <dbl>, carrier <chr>, flight <int>, tailnum <chr>,
## #   origin <chr>, dest <chr>, air_time <dbl>, distance <dbl>, hour <dbl>,
## #   minute <dbl>, time_hour <dttm>

Use desc() to re-order by a column in descending order:

arrange(flights, desc(dep_delay))

## # A tibble: 336,776 x 19
##     year month   day dep_time sched_dep_time dep_delay arr_time
##    <int> <int> <int>    <int>          <int>     <dbl>    <int>
##  1  2013     1     9      641            900      1301     1242
##  2  2013     6    15     1432           1935      1137     1607
##  3  2013     1    10     1121           1635      1126     1239
##  4  2013     9    20     1139           1845      1014     1457
##  5  2013     7    22      845           1600      1005     1044
##  6  2013     4    10     1100           1900       960     1342
##  7  2013     3    17     2321            810       911      135
##  8  2013     6    27      959           1900       899     1236
##  9  2013     7    22     2257            759       898      121
## 10  2013    12     5      756           1700       896     1058
## #  with 336,766 more rows, and 12 more variables: sched_arr_time <int>,
## #   arr_delay <dbl>, carrier <chr>, flight <int>, tailnum <chr>,
## #   origin <chr>, dest <chr>, air_time <dbl>, distance <dbl>, hour <dbl>,
## #   minute <dbl>, time_hour <dttm>
…
Sort flights to find the most delayed flights. Find the flights that left earliest.

Sort flights to find the fastest (highest speed) flights.

Which flights travelled the farthest? Which travelled the shortest?

Select columns with select()

Its not uncommon to get datasets with hundreds or even thousands of variables. In this case, the first challenge is often narrowing in on the variables youre actually interested in. select() allows you to rapidly zoom in on a useful subset using operations based on the names of the variables.

Select columns by name

select(flights, year, month, day)

## # A tibble: 336,776 x 3
##     year month   day
##    <int> <int> <int>
##  1  2013     1     1
##  2  2013     1     1
##  3  2013     1     1
##  4  2013     1     1
##  5  2013     1     1
##  6  2013     1     1
##  7  2013     1     1
##  8  2013     1     1
##  9  2013     1     1
## 10  2013     1     1
## #  with 336,766 more rows

Select all columns between year and day (inclusive)

select(flights, year:day)

## # A tibble: 336,776 x 3
##     year month   day
##    <int> <int> <int>
##  1  2013     1     1
##  2  2013     1     1
##  3  2013     1     1
##  4  2013     1     1
##  5  2013     1     1
##  6  2013     1     1
##  7  2013     1     1
##  8  2013     1     1
##  9  2013     1     1
## 10  2013     1     1
## #  with 336,766 more rows

Select all columns except those from year to day (inclusive)

select(flights, -(year:day))

## # A tibble: 336,776 x 16
##    dep_time sched_dep_time dep_delay arr_time sched_arr_time arr_delay
##       <int>          <int>     <dbl>    <int>          <int>     <dbl>
##  1      517            515         2      830            819        11
##  2      533            529         4      850            830        20
##  3      542            540         2      923            850        33
##  4      544            545        -1     1004           1022       -18
##  5      554            600        -6      812            837       -25
##  6      554            558        -4      740            728        12
##  7      555            600        -5      913            854        19
##  8      557            600        -3      709            723       -14
##  9      557            600        -3      838            846        -8
## 10      558            600        -2      753            745         8
## #  with 336,766 more rows, and 10 more variables: carrier <chr>,
## #   flight <int>, tailnum <chr>, origin <chr>, dest <chr>, air_time <dbl>,
## #   distance <dbl>, hour <dbl>, minute <dbl>, time_hour <dttm>
…
contains("ijk"): matches names that contain ijk.

matches("([^a])"): selects variables that match a regular expression.

num_range("x", 1:3): matches x1, x2 and x3.

See ?select for more details.

select() can be used to rename variables, but its rarely useful because it drops all of the variables not explicitly mentioned.

Instead, use rename(), which is a variant of select() that keeps all the variables that arent explicitly mentioned:

rename(flights, tail_num = tailnum)

## # A tibble: 336,776 x 19
##     year month   day dep_time sched_dep_time dep_delay arr_time
##    <int> <int> <int>    <int>          <int>     <dbl>    <int>
##  1  2013     1     1      517            515         2      830
##  2  2013     1     1      533            529         4      850
##  3  2013     1     1      542            540         2      923
##  4  2013     1     1      544            545        -1     1004
##  5  2013     1     1      554            600        -6      812
##  6  2013     1     1      554            558        -4      740
##  7  2013     1     1      555            600        -5      913
##  8  2013     1     1      557            600        -3      709
##  9  2013     1     1      557            600        -3      838
## 10  2013     1     1      558            600        -2      753
## #  with 336,766 more rows, and 12 more variables: sched_arr_time <int>,
## #   arr_delay <dbl>, carrier <chr>, flight <int>, tail_num <chr>,
## #   origin <chr>, dest <chr>, air_time <dbl>, distance <dbl>, hour <dbl>,
## #   minute <dbl>, time_hour <dttm>

Another option is to use select() in conjunction with the everything() helper. This is useful if you have a handful of variables youd like to move to the start of the data frame.

select(flights, time_hour, air_time, everything())

## # A tibble: 336,776 x 19
##    time_hour           air_time  year month   day dep_time sched_dep_time
##    <dttm>                 <dbl> <int> <int> <int>    <int>          <int>
##  1 2013-01-01 05:00:00      227  2013     1     1      517            515
##  2 2013-01-01 05:00:00      227  2013     1     1      533            529
##  3 2013-01-01 05:00:00      160  2013     1     1      542            540
##  4 2013-01-01 05:00:00      183  2013     1     1      544            545
##  5 2013-01-01 06:00:00      116  2013     1     1      554            600
##  6 2013-01-01 05:00:00      150  2013     1     1      554            558
##  7 2013-01-01 06:00:00      158  2013     1     1      555            600
##  8 2013-01-01 06:00:00       53  2013     1     1      557            600
##  9 2013-01-01 06:00:00      140  2013     1     1      557            600
## 10 2013-01-01 06:00:00      138  2013     1     1      558            600
## #  with 336,766 more rows, and 12 more variables: dep_delay <dbl>,
## #   arr_time <int>, sched_arr_time <int>, arr_delay <dbl>, carrier <chr>,
## #   flight <int>, tailnum <chr>, origin <chr>, dest <chr>, distance <dbl>,
## #   hour <dbl>, minute <dbl>

Exercises

What happens if you include the name of a variable multiple times in a select() call?

select(flights, time_hour, time_hour, year)

## # A tibble: 336,776 x 2
##    time_hour            year
##    <dttm>              <int>
##  1 2013-01-01 05:00:00  2013
##  2 2013-01-01 05:00:00  2013
##  3 2013-01-01 05:00:00  2013
##  4 2013-01-01 05:00:00  2013
##  5 2013-01-01 06:00:00  2013
##  6 2013-01-01 05:00:00  2013
##  7 2013-01-01 06:00:00  2013
##  8 2013-01-01 06:00:00  2013
##  9 2013-01-01 06:00:00  2013
## 10 2013-01-01 06:00:00  2013
## #  with 336,766 more rows

Selects only once.

What happens if you include the name of a variable as a string?

select(flights, "time_hour", time_hour, year)

## # A tibble: 336,776 x 2
##    time_hour            year
##    <dttm>              <int>
##  1 2013-01-01 05:00:00  2013
##  2 2013-01-01 05:00:00  2013
##  3 2013-01-01 05:00:00  2013
##  4 2013-01-01 05:00:00  2013
##  5 2013-01-01 06:00:00  2013
##  6 2013-01-01 05:00:00  2013
##  7 2013-01-01 06:00:00  2013
##  8 2013-01-01 06:00:00  2013
##  9 2013-01-01 06:00:00  2013
## 10 2013-01-01 06:00:00  2013
## #  with 336,766 more rows

What happens if you include the NULL value in a select() call?

select(flights, time_hour, NA)

Returns an error

What happens if you include the a variable name that does not exist in the dataframe?

select(flights, time_hour, )

## # A tibble: 336,776 x 1
##    time_hour          
##    <dttm>             
##  1 2013-01-01 05:00:00
##  2 2013-01-01 05:00:00
##  3 2013-01-01 05:00:00
##  4 2013-01-01 05:00:00
##  5 2013-01-01 06:00:00
##  6 2013-01-01 05:00:00
##  7 2013-01-01 06:00:00
##  8 2013-01-01 06:00:00
##  9 2013-01-01 06:00:00
## 10 2013-01-01 06:00:00
## #  with 336,766 more rows
…
