Lecture 7-1: Factors
…
To access the set of valid levels directly:

levels(f2)

## [1] "Dec" "Apr" "Jan" "Mar"

For the rest of this chapter, were going to focus on forcats::gss_cat. Its a sample of data from the General Social Survey, which is a long-running US survey conducted by the independent research organization NORC at the University of Chicago.

The survey has thousands of questions, so in gss_cat there are a handful that will illustrate some common challenges youll encounter when working with factors.

gss_cat

## # A tibble: 21,483 x 9
##     year marital     age race  rincome   partyid    relig   denom   tvhours
##    <int> <fct>     <int> <fct> <fct>     <fct>      <fct>   <fct>     <int>
##  1  2000 Never ma    26 White $8000 to Ind,near  Protes Southe      12
##  2  2000 Divorced     48 White $8000 to Not str r Protes Baptis      NA
##  3  2000 Widowed      67 White Not appl Independe Protes No den       2
##  4  2000 Never ma    39 White Not appl Ind,near  Orthod Not ap       4
##  5  2000 Divorced     25 White Not appl Not str d None    Not ap       1
##  6  2000 Married      25 White $20000 - Strong de Protes Southe      NA
##  7  2000 Never ma    36 White $25000 o Not str r Christ Not ap       3
##  8  2000 Divorced     44 White $7000 to Ind,near  Protes Luther      NA
##  9  2000 Married      44 White $25000 o Not str d Protes Other         0
## 10  2000 Married      47 White $25000 o Strong re Protes Southe       3
## #  with 21,473 more rows
…
Another type of reordering is useful when you are coloring the lines on a plot. fct_reorder2() reorders the factor by the y values associated with the largest x values. This makes the plot easier to read because the line colors line up with the legend.

by_age <- gss_cat %>%
  filter(!is.na(age)) %>%
  count(age, marital) %>%
  group_by(age) %>%
  mutate(prop = n / sum(n))
by_age

## # A tibble: 351 x 4
## # Groups:   age [72]
##      age marital           n    prop
##    <int> <fct>         <int>   <dbl>
##  1    18 Never married    89 0.978  
##  2    18 Married           2 0.0220 
##  3    19 Never married   234 0.940  
##  4    19 Divorced          3 0.0120 
##  5    19 Widowed           1 0.00402
##  6    19 Married          11 0.0442 
##  7    20 Never married   227 0.904  
##  8    20 Separated         1 0.00398
##  9    20 Divorced          2 0.00797
## 10    20 Married          21 0.0837 
## #  with 341 more rows
…
